<?xml version="1.0" encoding="UTF-8" standalone="no"?>
<!-- Created with Inkscape (http://www.inkscape.org/) -->

<svg
   width="8.8999119mm"
   height="6.7535391mm"
   viewBox="0 0 8.8999119 6.7535391"
   version="1.1"
   id="svg5"
   inkscape:version="1.2.1 (9c6d41e410, 2022-07-14)"
   sodipodi:docname="inx-flatten-paths.svg"
   xmlns:inkscape="http://www.inkscape.org/namespaces/inkscape"
   xmlns:sodipodi="http://sodipodi.sourceforge.net/DTD/sodipodi-0.dtd"
   xmlns="http://www.w3.org/2000/svg"
   xmlns:svg="http://www.w3.org/2000/svg">
  <sodipodi:namedview
     id="namedview7"
     pagecolor="#fbfbfb"
     bordercolor="#eeeeee"
     borderopacity="1"
     inkscape:pageshadow="0"
     inkscape:pageopacity="0"
     inkscape:pagecheckerboard="0"
     inkscape:document-units="mm"
     showgrid="false"
     inkscape:zoom="12.372166"
     inkscape:cx="19.196316"
     inkscape:cy="8.3655522"
     inkscape:window-width="1920"
     inkscape:window-height="1001"
     inkscape:window-x="-9"
     inkscape:window-y="-9"
     inkscape:window-maximized="1"
     inkscape:current-layer="layer1"
     inkscape:snap-global="false"
     showguides="false"
     inkscape:showpageshadow="2"
     inkscape:deskcolor="#fbfbfb">
    <inkscape:grid
       type="xygrid"
       id="grid825"
       originx="-47.326884"
       originy="-29.891053" />
  </sodipodi:namedview>
  <defs
     id="defs2">
    <inkscape:path-effect
       effect="bspline"
       id="path-effect859"
       is_visible="true"
       lpeversion="1"
       weight="33.333333"
       steps="2"
       helper_size="0"
       apply_no_weight="true"
       apply_with_weight="true"
       only_selected="false" />
    <marker
       style="overflow:visible"
       id="TriangleOutM-6"
       refX="0"
       refY="0"
       orient="auto"
       inkscape:stockid="TriangleOutM"
       inkscape:isstock="true"
       viewBox="0 0 4.2595265 4.9243081"
       markerWidth="4.2595263"
       markerHeight="4.9243083"
       preserveAspectRatio="xMidYMid">
      <path
         transform="scale(0.4)"
         style="fill:context-stroke;fill-rule:evenodd;stroke:context-stroke;stroke-width:1pt"
         d="M 5.77,0 -2.88,5 V -5 Z"
         id="path26404-5" />
    </marker>
  </defs>
  <g
     inkscape:label="Layer 1"
     inkscape:groupmode="layer"
     id="layer1"
     transform="translate(-47.326885,-29.891053)">
    <path
       style="font-variation-settings:normal;fill:none;fill-opacity:1;stroke:#505050;stroke-width:0.165001;stroke-linecap:butt;stroke-linejoin:round;stroke-miterlimit:4;stroke-dasharray:none;stroke-dashoffset:0;stroke-opacity:1;marker-end:url(#TriangleOutM-6);stop-color:#000000"
       d="m 51.72682,33.07311 v 0.8653"
       id="path153670" />
    <g
       id="g153073"
       transform="translate(-441.83645,-586.00326)">
      <rect
         style="fill:#c6c6c6;fill-opacity:1;stroke:#505050;stroke-width:0.230031;stroke-linecap:round;stroke-opacity:1"
         id="rect98218-5"
         width="7.2099204"
         height="2.3625126"
         x="-45.432846"
         y="816.73676"
         rx="0.12141962"
         ry="0.16062039"
         transform="matrix(1,0,0.65463918,0.75594149,0,0)" />
      <rect
         style="fill:#ffffff;fill-opacity:1;stroke:#505050;stroke-width:0.230031;stroke-linecap:round;stroke-opacity:1"
         id="rect98218-5-6"
         width="5.1429043"
         height="2.2415278"
         x="-43.996113"
         y="816.18677"
         rx="0.12141962"
         ry="0.16062039"
         transform="matrix(1,0,0.65463918,0.75594149,0,0)" />
      <rect
         style="fill:#c6c6c6;fill-opacity:1;stroke:#505050;stroke-width:0.230031;stroke-linecap:round;stroke-opacity:1"
         id="rect98218"
         width="3.1670139"
         height="1.7937227"
         x="-42.644306"
         y="815.53363"
         rx="0.12141962"
         ry="0.16062039"
         transform="matrix(1,0,0.65463918,0.75594149,0,0)" />
      <rect
         style="fill:#ffffff;fill-opacity:1;stroke:#505050;stroke-width:0.230031;stroke-linecap:round;stroke-opacity:1"
         id="rect98218-5-6-1"
         width="1.5561972"
         height="1.2790891"
         x="-41.38081"
         y="815.18805"
         rx="0.12141962"
         ry="0.16062039"
         transform="matrix(1,0,0.65463918,0.75594149,0,0)" />
      <rect
         style="fill:#c6c6c6;fill-opacity:1;stroke:#505050;stroke-width:0.230031;stroke-linecap:round;stroke-dasharray:none;stroke-opacity:1"
         id="rect98218-5-6-1-8"
         width="0.69503045"
         height="0.57459497"
         x="-40.500114"
         y="814.85309"
         rx="0.053522442"
         ry="0.070802361"
         transform="matrix(1,0,0.65463918,0.75594149,0,0)" />
    </g>
    <g
       id="g153012"
       transform="matrix(1.0893845,0,0.27397518,0.43599456,-645.14509,-233.55787)">
      <path
         id="rect99576-6-2-2-4-7-3-2-6-3"
         style="fill:#c6c6c6;fill-opacity:1;stroke:#505050;stroke-width:0.2;stroke-linecap:round;stroke-opacity:1"
         d="m 481.23729,615.56088 c -0.0643,0.004 -0.11524,0.0745 -0.11524,0.16071 v 3.75636 c 0,0.089 0.0542,0.1602 0.12144,0.1602 h 6.45439 c 0.0673,0 0.12144,-0.0712 0.12144,-0.1602 v -3.75636 c 0,-0.089 -0.0542,-0.16071 -0.12144,-0.16071 h -6.45439 c -0.002,0 -0.004,-1.4e-4 -0.006,0 z m 1.19321,0.28835 c 0.002,-1.4e-4 0.004,0 0.006,0 h 4.06797 c 0.0673,0 0.12144,0.0712 0.12144,0.1602 v 3.18017 c 0,0.089 -0.0542,0.16071 -0.12144,0.16071 h -4.06797 c -0.0673,0 -0.12144,-0.0717 -0.12144,-0.16071 v -3.18017 c 0,-0.0862 0.0509,-0.15594 0.11524,-0.1602 z m 0.53485,0.3731 c -0.0643,0.004 -0.11524,0.0745 -0.11524,0.16072 v 2.43344 c 0,0.089 0.0542,0.1602 0.12144,0.1602 h 2.99827 c 0.0673,0 0.12144,-0.0712 0.12144,-0.1602 v -2.43344 c 0,-0.089 -0.0542,-0.16072 -0.12144,-0.16072 h -2.99827 c -0.002,0 -0.004,-1.3e-4 -0.006,0 z m 0.56276,0.45372 h 1.88515 c 0.0673,0 0.12144,0.0717 0.12144,0.16072 v 1.526 c 0,0.089 -0.0542,0.16072 -0.12144,0.16072 h -1.88515 c -0.0673,0 -0.12144,-0.0717 -0.12144,-0.16072 v -1.526 c 0,-0.089 0.0542,-0.16072 0.12144,-0.16072 z m 0.58446,0.45579 c -0.0673,0 -0.12144,0.0717 -0.12144,0.16071 v 0.61444 c 0,0.089 0.0542,0.16019 0.12144,0.16019 h 0.71623 c 0.0673,0 0.12144,-0.0712 0.12144,-0.16019 v -0.61444 c 0,-0.089 -0.0542,-0.16071 -0.12144,-0.16071 z" />
      <path
         id="rect99576-6-2-2-4-7-3-2-6"
         style="fill:none;fill-opacity:1;stroke:#505050;stroke-width:0.2;stroke-linecap:round;stroke-opacity:1"
         d="m 481.23729,615.56088 c -0.0643,0.004 -0.11524,0.0745 -0.11524,0.16071 v 3.75636 c 0,0.089 0.0542,0.1602 0.12144,0.1602 h 6.45439 c 0.0673,0 0.12144,-0.0712 0.12144,-0.1602 v -3.75636 c 0,-0.089 -0.0542,-0.16071 -0.12144,-0.16071 h -6.45439 c -0.002,0 -0.004,-1.4e-4 -0.006,0 z"
         sodipodi:nodetypes="ssssssssss" />
    </g>
  </g>
</svg>
